<?xml version="1.0" encoding="utf-8"?>
<!-- Generator: Adobe Illustrator 21.1.0, SVG Export Plug-In . SVG Version: 6.00 Build 0)  -->
<svg version="1.1" id="Layer_1" xmlns="http://www.w3.org/2000/svg" xmlns:xlink="http://www.w3.org/1999/xlink" x="0px" y="0px"
	 width="64px" height="64px" viewBox="0 0 64 64" style="enable-background:new 0 0 64 64;" xml:space="preserve">
<style type="text/css">
	.st0{fill:#231F20;fill-opacity:0;}
	.st1{fill:#2088C9;}
	.st2{fill:#9CCC67;}
	.st3{fill:#F78C21;}
	.st4{fill:#FFFFFF;}
	.st5{fill:#FDE800;}
	.st6{fill:#3BC2D6;}
	.st7{fill:#00ACC1;}
	.st8{opacity:0.35;fill:url(#SVGID_1_);enable-background:new    ;}
	.st9{opacity:0.35;fill:url(#SVGID_2_);enable-background:new    ;}
	.st10{opacity:0.35;fill:url(#SVGID_3_);enable-background:new    ;}
	.st11{opacity:0.15;fill:#FFFFFF;enable-background:new    ;}
	.st12{opacity:0.35;fill:url(#SVGID_4_);enable-background:new    ;}
	.st13{opacity:8.000000e-02;fill:#231F20;enable-background:new    ;}
</style>
<symbol  id="apps_hub" viewBox="-32 -32 64 64">
	<polygon class="st0" points="32,32 -32,32 -32,-32 32,-32 	"/>
	<path class="st1" d="M-11-10.8v-21h-15.8c-2.8,0-5.1,2.3-5.1,5.1v15.9H-11z"/>
	<path class="st2" d="M-31.9,26.9c0,2.8,2.3,5.1,5.1,5.1H-11V11h-20.9V26.9z"/>
	<path class="st3" d="M10.7,11v21h16c2.8,0,5.1-2.3,5.1-5.1V11H10.7z"/>
	<path class="st2" d="M26.7-31.8h-16v21h21.1v-15.9C31.8-29.5,29.6-31.8,26.7-31.8z"/>
	<polygon class="st4" points="10.7,11 -11,11 -11,-10.8 10.7,-10.8 	"/>
	<polygon class="st5" points="10.7,32 -11,32 -11,11 10.7,11 	"/>
	<polygon class="st6" points="10.7,-10.8 -11,-10.8 -11,-31.8 10.7,-31.8 	"/>
	<polygon class="st7" points="-11,11 -31.9,11 -31.9,-10.8 -11,-10.8 	"/>
	<polygon class="st5" points="31.8,11 10.7,11 10.7,-10.8 31.8,-10.8 	"/>
	<linearGradient id="SVGID_1_" gradientUnits="userSpaceOnUse" x1="-34.9807" y1="-41.0682" x2="29.0993" y2="-13.3382">
		<stop  offset="0" style="stop-color:#231F20"/>
		<stop  offset="1" style="stop-color:#020202;stop-opacity:0"/>
	</linearGradient>
	<polygon class="st8" points="10.8,-31.8 31.8,-10.8 10.7,-10.8 	"/>
	<linearGradient id="SVGID_2_" gradientUnits="userSpaceOnUse" x1="-35.7281" y1="-19.9643" x2="29.1719" y2="8.1157">
		<stop  offset="0" style="stop-color:#231F20"/>
		<stop  offset="1" style="stop-color:#020202;stop-opacity:0"/>
	</linearGradient>
	<polygon class="st9" points="10.7,-10.8 31.7,11.1 10.7,11.1 	"/>
	<linearGradient id="SVGID_3_" gradientUnits="userSpaceOnUse" x1="-15.5669" y1="-31.9811" x2="6.7931" y2="30.3389">
		<stop  offset="0" style="stop-color:#231F20"/>
		<stop  offset="1" style="stop-color:#020202;stop-opacity:0"/>
	</linearGradient>
	<polygon class="st10" points="10.7,31.8 -11,11 10.7,11 	"/>
	<polygon class="st11" points="31.8,11 31.8,11.8 31.8,11.8 	"/>
	<path class="st11" d="M-26.9-31h53.6c2.8,0,5.1,2.3,5.1,5.1v-0.8c0-2.8-2.3-5.1-5.1-5.1h-53.6c-2.8,0-5.1,2.3-5.1,5.1v0.8
		C-32-28.7-29.7-31-26.9-31C-26.9-31-26.9-31-26.9-31z"/>
	<linearGradient id="SVGID_4_" gradientUnits="userSpaceOnUse" x1="-34.499" y1="-25.4203" x2="-17.049" y2="23.2297">
		<stop  offset="0" style="stop-color:#231F20"/>
		<stop  offset="1" style="stop-color:#020202;stop-opacity:0"/>
	</linearGradient>
	<polygon class="st12" points="-11,32 -11,11 -31.9,11 -11.8,32 	"/>
	<path class="st13" d="M26.7,31.2h-37.8v-0.1l0,0v0h-15.8c-2.8,0-5.1-2.3-5.1-5.1c0,0,0,0,0,0v0.8c0,2.8,2.3,5.1,5.1,5.1
		c0,0,0,0,0,0h53.6c2.8,0,5.1-2.3,5.1-5.1V26C31.8,28.8,29.5,31.1,26.7,31.2C26.7,31.1,26.7,31.1,26.7,31.2z"/>
</symbol>
<use xlink:href="#apps_hub"  width="64" height="64" x="-32" y="-32" transform="matrix(1 0 0 1 32 32)" style="overflow:visible;"/>
</svg>
